%YAML 1.1
%TAG !u! tag:unity3d.com,2011:
--- !u!54 &4509187163327936730
Rigidbody:
  m_ObjectHideFlags: 0
  m_CorrespondingSourceObject: {fileID: 0}
  m_PrefabInstance: {fileID: 0}
  m_PrefabAsset: {fileID: 0}
  m_GameObject: {fileID: 3990505925616195753}
  serializedVersion: 2
  m_Mass: 1
  m_Drag: 0
  m_AngularDrag: 0.05
  m_UseGravity: 1
  m_IsKinematic: 0
  m_Interpolate: 0
  m_Constraints: 0
  m_CollisionDetection: 0
--- !u!65 &4124302439131831850
BoxCollider:
  m_ObjectHideFlags: 0
  m_CorrespondingSourceObject: {fileID: 0}
  m_PrefabInstance: {fileID: 0}
  m_PrefabAsset: {fileID: 0}
  m_GameObject: {fileID: 3990505925616195753}
  m_Material: {fileID: 0}
  m_IsTrigger: 0
  m_Enabled: 1
  serializedVersion: 2
  m_Size: {x: 0.028528938, y: 0.02852892, z: 0.020346}
  m_Center: {x: 0.00008220925, y: 0.000027186234, z: 0.00000057090074}
--- !u!1001 &4296563987916318200
PrefabInstance:
  m_ObjectHideFlags: 0
  serializedVersion: 2
  m_Modification:
    m_TransformParent: {fileID: 0}
    m_Modifications:
    - target: {fileID: -8679921383154817045, guid: 482d1086bb38b3d4abfe471b28068b63,
        type: 3}
      propertyPath: m_RootOrder
      value: 0
      objectReference: {fileID: 0}
    - target: {fileID: -8679921383154817045, guid: 482d1086bb38b3d4abfe471b28068b63,
        type: 3}
      propertyPath: m_LocalPosition.x
      value: 0
      objectReference: {fileID: 0}
    - target: {fileID: -8679921383154817045, guid: 482d1086bb38b3d4abfe471b28068b63,
        type: 3}
      propertyPath: m_LocalPosition.y
      value: 0
      objectReference: {fileID: 0}
    - target: {fileID: -8679921383154817045, guid: 482d1086bb38b3d4abfe471b28068b63,
        type: 3}
      propertyPath: m_LocalPosition.z
      value: 0
      objectReference: {fileID: 0}
    - target: {fileID: -8679921383154817045, guid: 482d1086bb38b3d4abfe471b28068b63,
        type: 3}
      propertyPath: m_LocalRotation.w
      value: 0.999962
      objectReference: {fileID: 0}
    - target: {fileID: -8679921383154817045, guid: 482d1086bb38b3d4abfe471b28068b63,
        type: 3}
      propertyPath: m_LocalRotation.x
      value: 0
      objectReference: {fileID: 0}
    - target: {fileID: -8679921383154817045, guid: 482d1086bb38b3d4abfe471b28068b63,
        type: 3}
      propertyPath: m_LocalRotation.y
      value: 0.008726558
      objectReference: {fileID: 0}
    - target: {fileID: -8679921383154817045, guid: 482d1086bb38b3d4abfe471b28068b63,
        type: 3}
      propertyPath: m_LocalRotation.z
      value: 0
      objectReference: {fileID: 0}
    - target: {fileID: -8679921383154817045, guid: 482d1086bb38b3d4abfe471b28068b63,
        type: 3}
      propertyPath: m_LocalEulerAnglesHint.x
      value: 0
      objectReference: {fileID: 0}
    - target: {fileID: -8679921383154817045, guid: 482d1086bb38b3d4abfe471b28068b63,
        type: 3}
      propertyPath: m_LocalEulerAnglesHint.y
      value: 1
      objectReference: {fileID: 0}
    - target: {fileID: -8679921383154817045, guid: 482d1086bb38b3d4abfe471b28068b63,
        type: 3}
      propertyPath: m_LocalEulerAnglesHint.z
      value: 0
      objectReference: {fileID: 0}
    - target: {fileID: 919132149155446097, guid: 482d1086bb38b3d4abfe471b28068b63,
        type: 3}
      propertyPath: m_Name
      value: Crate_14 Variant
      objectReference: {fileID: 0}
    - target: {fileID: 919132149155446097, guid: 482d1086bb38b3d4abfe471b28068b63,
        type: 3}
      propertyPath: m_TagString
      value: Obstacle
      objectReference: {fileID: 0}
    m_RemovedComponents: []
  m_SourcePrefab: {fileID: 100100000, guid: 482d1086bb38b3d4abfe471b28068b63, type: 3}
--- !u!1 &3990505925616195753 stripped
GameObject:
  m_CorrespondingSourceObject: {fileID: 919132149155446097, guid: 482d1086bb38b3d4abfe471b28068b63,
    type: 3}
  m_PrefabInstance: {fileID: 4296563987916318200}
  m_PrefabAsset: {fileID: 0}
