%YAML 1.1
%TAG !u! tag:unity3d.com,2011:
--- !u!54 &2872914171551337929
Rigidbody:
  m_ObjectHideFlags: 0
  m_CorrespondingSourceObject: {fileID: 0}
  m_PrefabInstance: {fileID: 0}
  m_PrefabAsset: {fileID: 0}
  m_GameObject: {fileID: 2621327564561502457}
  serializedVersion: 2
  m_Mass: 1
  m_Drag: 0
  m_AngularDrag: 0.05
  m_UseGravity: 1
  m_IsKinematic: 0
  m_Interpolate: 0
  m_Constraints: 0
  m_CollisionDetection: 0
--- !u!65 &6756606818673800541
BoxCollider:
  m_ObjectHideFlags: 0
  m_CorrespondingSourceObject: {fileID: 0}
  m_PrefabInstance: {fileID: 0}
  m_PrefabAsset: {fileID: 0}
  m_GameObject: {fileID: 2621327564561502457}
  m_Material: {fileID: 0}
  m_IsTrigger: 0
  m_Enabled: 1
  serializedVersion: 2
  m_Size: {x: 0.014931531, y: 0.02681012, z: 0.012306429}
  m_Center: {x: 0.0000013140962, y: 0.000041651074, z: -0.0000003937191}
--- !u!1001 &2927826128237096360
PrefabInstance:
  m_ObjectHideFlags: 0
  serializedVersion: 2
  m_Modification:
    m_TransformParent: {fileID: 0}
    m_Modifications:
    - target: {fileID: -8679921383154817045, guid: 674167d9ad47fb6428760dc355a6fa0c,
        type: 3}
      propertyPath: m_RootOrder
      value: 0
      objectReference: {fileID: 0}
    - target: {fileID: -8679921383154817045, guid: 674167d9ad47fb6428760dc355a6fa0c,
        type: 3}
      propertyPath: m_LocalPosition.x
      value: 0
      objectReference: {fileID: 0}
    - target: {fileID: -8679921383154817045, guid: 674167d9ad47fb6428760dc355a6fa0c,
        type: 3}
      propertyPath: m_LocalPosition.y
      value: 0
      objectReference: {fileID: 0}
    - target: {fileID: -8679921383154817045, guid: 674167d9ad47fb6428760dc355a6fa0c,
        type: 3}
      propertyPath: m_LocalPosition.z
      value: 0
      objectReference: {fileID: 0}
    - target: {fileID: -8679921383154817045, guid: 674167d9ad47fb6428760dc355a6fa0c,
        type: 3}
      propertyPath: m_LocalRotation.w
      value: -0.00000013767878
      objectReference: {fileID: 0}
    - target: {fileID: -8679921383154817045, guid: 674167d9ad47fb6428760dc355a6fa0c,
        type: 3}
      propertyPath: m_LocalRotation.x
      value: 0.00000013767877
      objectReference: {fileID: 0}
    - target: {fileID: -8679921383154817045, guid: 674167d9ad47fb6428760dc355a6fa0c,
        type: 3}
      propertyPath: m_LocalRotation.y
      value: 0.7071068
      objectReference: {fileID: 0}
    - target: {fileID: -8679921383154817045, guid: 674167d9ad47fb6428760dc355a6fa0c,
        type: 3}
      propertyPath: m_LocalRotation.z
      value: 0.70710677
      objectReference: {fileID: 0}
    - target: {fileID: -8679921383154817045, guid: 674167d9ad47fb6428760dc355a6fa0c,
        type: 3}
      propertyPath: m_LocalEulerAnglesHint.x
      value: 0
      objectReference: {fileID: 0}
    - target: {fileID: -8679921383154817045, guid: 674167d9ad47fb6428760dc355a6fa0c,
        type: 3}
      propertyPath: m_LocalEulerAnglesHint.y
      value: 0
      objectReference: {fileID: 0}
    - target: {fileID: -8679921383154817045, guid: 674167d9ad47fb6428760dc355a6fa0c,
        type: 3}
      propertyPath: m_LocalEulerAnglesHint.z
      value: 0
      objectReference: {fileID: 0}
    - target: {fileID: 919132149155446097, guid: 674167d9ad47fb6428760dc355a6fa0c,
        type: 3}
      propertyPath: m_Name
      value: Crate_11 Variant
      objectReference: {fileID: 0}
    - target: {fileID: 919132149155446097, guid: 674167d9ad47fb6428760dc355a6fa0c,
        type: 3}
      propertyPath: m_TagString
      value: Obstacle
      objectReference: {fileID: 0}
    m_RemovedComponents: []
  m_SourcePrefab: {fileID: 100100000, guid: 674167d9ad47fb6428760dc355a6fa0c, type: 3}
--- !u!1 &2621327564561502457 stripped
GameObject:
  m_CorrespondingSourceObject: {fileID: 919132149155446097, guid: 674167d9ad47fb6428760dc355a6fa0c,
    type: 3}
  m_PrefabInstance: {fileID: 2927826128237096360}
  m_PrefabAsset: {fileID: 0}
