%YAML 1.1
%TAG !u! tag:unity3d.com,2011:
--- !u!1001 &3928894661205005545
PrefabInstance:
  m_ObjectHideFlags: 0
  serializedVersion: 2
  m_Modification:
    m_TransformParent: {fileID: 0}
    m_Modifications:
    - target: {fileID: 4257684843511213748, guid: e62bdc4ff98069f479b98276e743b864,
        type: 3}
      propertyPath: m_RootOrder
      value: 0
      objectReference: {fileID: 0}
    - target: {fileID: 4257684843511213748, guid: e62bdc4ff98069f479b98276e743b864,
        type: 3}
      propertyPath: m_LocalPosition.x
      value: 2.4305644
      objectReference: {fileID: 0}
    - target: {fileID: 4257684843511213748, guid: e62bdc4ff98069f479b98276e743b864,
        type: 3}
      propertyPath: m_LocalPosition.y
      value: 1
      objectReference: {fileID: 0}
    - target: {fileID: 4257684843511213748, guid: e62bdc4ff98069f479b98276e743b864,
        type: 3}
      propertyPath: m_LocalPosition.z
      value: -6.4836464
      objectReference: {fileID: 0}
    - target: {fileID: 4257684843511213748, guid: e62bdc4ff98069f479b98276e743b864,
        type: 3}
      propertyPath: m_LocalRotation.w
      value: 1
      objectReference: {fileID: 0}
    - target: {fileID: 4257684843511213748, guid: e62bdc4ff98069f479b98276e743b864,
        type: 3}
      propertyPath: m_LocalRotation.x
      value: -0
      objectReference: {fileID: 0}
    - target: {fileID: 4257684843511213748, guid: e62bdc4ff98069f479b98276e743b864,
        type: 3}
      propertyPath: m_LocalRotation.y
      value: -0
      objectReference: {fileID: 0}
    - target: {fileID: 4257684843511213748, guid: e62bdc4ff98069f479b98276e743b864,
        type: 3}
      propertyPath: m_LocalRotation.z
      value: -0
      objectReference: {fileID: 0}
    - target: {fileID: 4257684843511213748, guid: e62bdc4ff98069f479b98276e743b864,
        type: 3}
      propertyPath: m_LocalEulerAnglesHint.x
      value: 0
      objectReference: {fileID: 0}
    - target: {fileID: 4257684843511213748, guid: e62bdc4ff98069f479b98276e743b864,
        type: 3}
      propertyPath: m_LocalEulerAnglesHint.y
      value: 0
      objectReference: {fileID: 0}
    - target: {fileID: 4257684843511213748, guid: e62bdc4ff98069f479b98276e743b864,
        type: 3}
      propertyPath: m_LocalEulerAnglesHint.z
      value: 0
      objectReference: {fileID: 0}
    - target: {fileID: 4257684843511213749, guid: e62bdc4ff98069f479b98276e743b864,
        type: 3}
      propertyPath: arrow
      value: 
      objectReference: {fileID: 19011504980268240}
    - target: {fileID: 4257684843511213749, guid: e62bdc4ff98069f479b98276e743b864,
        type: 3}
      propertyPath: pathCreator
      value: 
      objectReference: {fileID: 0}
    - target: {fileID: 4257684843511213750, guid: e62bdc4ff98069f479b98276e743b864,
        type: 3}
      propertyPath: m_Name
      value: CarPrefab
      objectReference: {fileID: 0}
    - target: {fileID: 4257684843511213750, guid: e62bdc4ff98069f479b98276e743b864,
        type: 3}
      propertyPath: m_IsActive
      value: 1
      objectReference: {fileID: 0}
    m_RemovedComponents: []
  m_SourcePrefab: {fileID: 100100000, guid: e62bdc4ff98069f479b98276e743b864, type: 3}
--- !u!1 &19011504980268240 stripped
GameObject:
  m_CorrespondingSourceObject: {fileID: 3946761017843974201, guid: e62bdc4ff98069f479b98276e743b864,
    type: 3}
  m_PrefabInstance: {fileID: 3928894661205005545}
  m_PrefabAsset: {fileID: 0}
