%YAML 1.1
%TAG !u! tag:unity3d.com,2011:
--- !u!65 &8379095209129083013
BoxCollider:
  m_ObjectHideFlags: 0
  m_CorrespondingSourceObject: {fileID: 0}
  m_PrefabInstance: {fileID: 0}
  m_PrefabAsset: {fileID: 0}
  m_GameObject: {fileID: 2113113351422136385}
  m_Material: {fileID: 0}
  m_IsTrigger: 0
  m_Enabled: 1
  serializedVersion: 2
  m_Size: {x: 2.4384, y: 4.876801, z: 0.15240003}
  m_Center: {x: 0, y: 0, z: 0.076200016}
--- !u!1001 &1266110404282281232
PrefabInstance:
  m_ObjectHideFlags: 0
  serializedVersion: 2
  m_Modification:
    m_TransformParent: {fileID: 0}
    m_Modifications:
    - target: {fileID: -8679921383154817045, guid: 831f6bf3da9711640a96f7654081f0d7,
        type: 3}
      propertyPath: m_RootOrder
      value: 0
      objectReference: {fileID: 0}
    - target: {fileID: -8679921383154817045, guid: 831f6bf3da9711640a96f7654081f0d7,
        type: 3}
      propertyPath: m_LocalScale.x
      value: 7.5
      objectReference: {fileID: 0}
    - target: {fileID: -8679921383154817045, guid: 831f6bf3da9711640a96f7654081f0d7,
        type: 3}
      propertyPath: m_LocalScale.y
      value: 7.5
      objectReference: {fileID: 0}
    - target: {fileID: -8679921383154817045, guid: 831f6bf3da9711640a96f7654081f0d7,
        type: 3}
      propertyPath: m_LocalScale.z
      value: 7.5
      objectReference: {fileID: 0}
    - target: {fileID: -8679921383154817045, guid: 831f6bf3da9711640a96f7654081f0d7,
        type: 3}
      propertyPath: m_LocalPosition.x
      value: 0
      objectReference: {fileID: 0}
    - target: {fileID: -8679921383154817045, guid: 831f6bf3da9711640a96f7654081f0d7,
        type: 3}
      propertyPath: m_LocalPosition.y
      value: -0.5
      objectReference: {fileID: 0}
    - target: {fileID: -8679921383154817045, guid: 831f6bf3da9711640a96f7654081f0d7,
        type: 3}
      propertyPath: m_LocalPosition.z
      value: 0
      objectReference: {fileID: 0}
    - target: {fileID: -8679921383154817045, guid: 831f6bf3da9711640a96f7654081f0d7,
        type: 3}
      propertyPath: m_LocalRotation.w
      value: 0.7071068
      objectReference: {fileID: 0}
    - target: {fileID: -8679921383154817045, guid: 831f6bf3da9711640a96f7654081f0d7,
        type: 3}
      propertyPath: m_LocalRotation.x
      value: -0.7071068
      objectReference: {fileID: 0}
    - target: {fileID: -8679921383154817045, guid: 831f6bf3da9711640a96f7654081f0d7,
        type: 3}
      propertyPath: m_LocalRotation.y
      value: 0
      objectReference: {fileID: 0}
    - target: {fileID: -8679921383154817045, guid: 831f6bf3da9711640a96f7654081f0d7,
        type: 3}
      propertyPath: m_LocalRotation.z
      value: -0
      objectReference: {fileID: 0}
    - target: {fileID: -8679921383154817045, guid: 831f6bf3da9711640a96f7654081f0d7,
        type: 3}
      propertyPath: m_LocalEulerAnglesHint.x
      value: 0
      objectReference: {fileID: 0}
    - target: {fileID: -8679921383154817045, guid: 831f6bf3da9711640a96f7654081f0d7,
        type: 3}
      propertyPath: m_LocalEulerAnglesHint.y
      value: 0
      objectReference: {fileID: 0}
    - target: {fileID: -8679921383154817045, guid: 831f6bf3da9711640a96f7654081f0d7,
        type: 3}
      propertyPath: m_LocalEulerAnglesHint.z
      value: 0
      objectReference: {fileID: 0}
    - target: {fileID: -7511558181221131132, guid: 831f6bf3da9711640a96f7654081f0d7,
        type: 3}
      propertyPath: m_Materials.Array.data[0]
      value: 
      objectReference: {fileID: 2100000, guid: d20961e236d049a4cb93b89012d85eea, type: 2}
    - target: {fileID: 919132149155446097, guid: 831f6bf3da9711640a96f7654081f0d7,
        type: 3}
      propertyPath: m_Name
      value: 2
      objectReference: {fileID: 0}
    - target: {fileID: 919132149155446097, guid: 831f6bf3da9711640a96f7654081f0d7,
        type: 3}
      propertyPath: m_TagString
      value: Ground
      objectReference: {fileID: 0}
    - target: {fileID: 919132149155446097, guid: 831f6bf3da9711640a96f7654081f0d7,
        type: 3}
      propertyPath: m_StaticEditorFlags
      value: 8
      objectReference: {fileID: 0}
    m_RemovedComponents: []
  m_SourcePrefab: {fileID: 100100000, guid: 831f6bf3da9711640a96f7654081f0d7, type: 3}
--- !u!1 &2113113351422136385 stripped
GameObject:
  m_CorrespondingSourceObject: {fileID: 919132149155446097, guid: 831f6bf3da9711640a96f7654081f0d7,
    type: 3}
  m_PrefabInstance: {fileID: 1266110404282281232}
  m_PrefabAsset: {fileID: 0}
